# This file contains temperatures, relaxation times (tau*) and beta values for a Exponential Model dataset
# See calc_lntau_from_params.py for more information
T (K), tau* (s), tau*-s-dev (s), beta (), beta-s-dev ()
1.999990494197467328e+00,7.994185903439254162e+02,4.216866328017836452e-01,4.636786506374346306e-01,1.472816397988711921e-04
2.999990666353219204e+00,6.337568982700674951e+02,2.595892315838811415e-01,5.305812734846699907e-01,1.567183784734324980e-04
3.999977511036291844e+00,5.296780884613502849e+02,1.812143967571886727e-01,5.723899190300649753e-01,1.567967959112433868e-04
5.999996488937065386e+00,4.073820205793099944e+02,1.375391759435097283e-01,6.250534344599496528e-01,1.897230799271438010e-04
8.999978402568464375e+00,3.027905607368867891e+02,8.709284838561205666e-02,6.748523611429279034e-01,1.909701671609624228e-04
1.300000044817442557e+01,2.221306461027522516e+02,5.958134199815587340e-02,7.367304416297598690e-01,2.158776596301638384e-04
1.600000283369769249e+01,1.773270551944368094e+02,6.978055762666188211e-02,7.776517079191822557e-01,3.552932562345884667e-04
2.000000386265756447e+01,1.315539466724347619e+02,7.132381514862883021e-02,8.252107760141966786e-01,5.510750323019106495e-04
2.300000499302893431e+01,1.059486984975734032e+02,6.590848906593638201e-02,8.551421790187934135e-01,6.876042904706929342e-04
