T (K), H (Oe), tau (s), tau-s-dev (s), chi_S (cm^3 mol^-1), chi_S-s-dev (cm^3 mol^-1), chi_T (cm^3 mol^-1), chi_T-s-dev (cm^3 mol^-1), alpha (), alpha-s-dev (), <ln(tau)> (ln(s)), sigma_ln(tau) (ln(s)), fit_upper_ln(tau) (ln(s)), fit_lower_ln(tau) (ln(s))
4.0000000000E+00,8.0000000000E+02,1.4595716533E+02,1.4595716533E-01,1.0700000000E+00,0.0000000000E+00,3.7200000000E+00,0.0000000000E+00,1.0000000000E-01,0.0000000000E+00,4.9833131905E+00,8.7846312584E-01,4.9843126908E+00,4.9823126902E+00
5.0000000000E+00,8.0000000000E+02,4.0414069210E+01,4.0414069210E-02,8.3000000000E-01,0.0000000000E+00,2.9143978338E+00,0.0000000000E+00,8.5435152368E-02,0.0000000000E+00,3.6991779721E+00,8.0209919436E-01,3.7001774725E+00,3.6981774718E+00
6.0000000000E+00,8.0000000000E+02,1.6252793690E+01,1.6252793690E-02,6.8000000000E-01,0.0000000000E+00,2.4200000000E+00,0.0000000000E+00,7.7975808231E-02,0.0000000000E+00,2.7882648134E+00,7.6156380765E-01,2.7892643137E+00,2.7872643131E+00
7.0000000000E+00,8.0000000000E+02,7.9623194278E+00,7.9623194278E-03,5.5000000000E-01,0.0000000000E+00,2.0469318686E+00,0.0000000000E+00,7.2246486691E-02,0.0000000000E+00,2.0747203428E+00,7.2960996264E-01,2.0757198431E+00,2.0737198425E+00
8.0000000000E+00,8.0000000000E+02,4.1943328566E+00,4.1943328566E-03,4.7000000000E-01,0.0000000000E+00,1.7300000000E+00,0.0000000000E+00,6.0000000000E-02,0.0000000000E+00,1.4337342943E+00,6.5832126205E-01,1.4347337946E+00,1.4327337939E+00
9.0000000000E+00,8.0000000000E+02,2.4958613121E+00,2.4958613121E-03,4.0316679613E-01,0.0000000000E+00,1.5031667961E+00,0.0000000000E+00,4.5084187292E-02,0.0000000000E+00,9.1463388491E-01,5.6389768639E-01,9.1563338524E-01,9.1363338457E-01
1.0000000000E+01,8.0000000000E+02,1.6471741558E+00,1.6471741558E-03,3.5000000000E-01,0.0000000000E+00,1.3300000000E+00,0.0000000000E+00,3.8976455422E-02,0.0000000000E+00,4.9906118682E-01,5.2179245152E-01,5.0006068715E-01,4.9806068648E-01
1.2000000000E+01,8.0000000000E+02,7.5127619598E-01,7.5127619598E-04,2.6386874817E-01,0.0000000000E+00,1.0801384276E+00,0.0000000000E+00,2.8749807616E-02,0.0000000000E+00,-2.8598192388E-01,4.4457647014E-01,-2.8498242355E-01,-2.8698242421E-01
1.4000000000E+01,8.0000000000E+02,4.0656292906E-01,4.0656292906E-04,2.3071811801E-01,0.0000000000E+00,9.2530172980E-01,0.0000000000E+00,2.1489444020E-02,0.0000000000E+00,-9.0001655495E-01,3.8221304526E-01,-8.9901705461E-01,-9.0101705528E-01
1.6000000000E+01,8.0000000000E+02,2.4277710805E-01,2.4277710805E-04,2.0025942498E-01,0.0000000000E+00,8.1187408596E-01,0.0000000000E+00,2.3354684985E-02,0.0000000000E+00,-1.4156115074E+00,3.9902835229E-01,-1.4146120071E+00,-1.4166120077E+00
1.8000000000E+01,8.0000000000E+02,1.5664769360E-01,1.5664769360E-04,1.7848496338E-01,0.0000000000E+00,7.2757152225E-01,0.0000000000E+00,2.9054248014E-02,0.0000000000E+00,-1.8537559850E+00,4.4702975825E-01,-1.8527564846E+00,-1.8547564853E+00
2.0000000000E+01,8.0000000000E+02,1.0571820864E-01,1.0571820864E-04,1.6185595714E-01,0.0000000000E+00,6.5580960248E-01,0.0000000000E+00,2.8378677209E-02,0.0000000000E+00,-2.2469781338E+00,4.4157048347E-01,-2.2459786335E+00,-2.2479786341E+00
2.2000000000E+01,8.0000000000E+02,7.4810575109E-02,7.4810575109E-05,1.4853304821E-01,0.0000000000E+00,5.9777859623E-01,0.0000000000E+00,2.6657119412E-02,0.0000000000E+00,-2.5927960255E+00,4.2739680769E-01,-2.5917965252E+00,-2.5937965259E+00
2.4000000000E+01,8.0000000000E+02,5.4576474781E-02,5.4576474781E-05,1.3614114499E-01,0.0000000000E+00,5.4856113590E-01,0.0000000000E+00,2.9582928242E-02,0.0000000000E+00,-2.9081523539E+00,4.5126378116E-01,-2.9071528536E+00,-2.9091528542E+00
2.6000000000E+01,8.0000000000E+02,4.0854454471E-02,4.0854454471E-05,1.2623647277E-01,0.0000000000E+00,5.0723986651E-01,0.0000000000E+00,2.9671937812E-02,0.0000000000E+00,-3.1977394191E+00,4.5197340443E-01,-3.1967399187E+00,-3.1987399194E+00
2.8000000000E+01,8.0000000000E+02,3.1274253734E-02,3.1274253734E-05,1.1808700741E-01,0.0000000000E+00,4.7145692584E-01,0.0000000000E+00,2.7907543326E-02,0.0000000000E+00,-3.4649600844E+00,4.3772979828E-01,-3.4639605840E+00,-3.4659605847E+00
3.0000000000E+01,8.0000000000E+02,2.4243031567E-02,2.4243031567E-05,1.1120479482E-01,0.0000000000E+00,4.4018815926E-01,0.0000000000E+00,2.5214722100E-02,0.0000000000E+00,-3.7196260610E+00,4.1520953414E-01,-3.7186265606E+00,-3.7206265613E+00
3.2000000000E+01,8.0000000000E+02,1.9203286770E-02,1.9203286770E-05,1.0574733943E-01,0.0000000000E+00,4.1360871427E-01,0.0000000000E+00,2.4727711527E-02,0.0000000000E+00,-3.9526738287E+00,4.1102554072E-01,-3.9516743283E+00,-3.9536743290E+00
3.4000000000E+01,8.0000000000E+02,1.5305538102E-02,1.5305538102E-05,9.9767509902E-02,0.0000000000E+00,3.8933186018E-01,0.0000000000E+00,2.5743053367E-02,0.0000000000E+00,-4.1795405487E+00,4.1970834099E-01,-4.1785410483E+00,-4.1805410490E+00
3.6000000000E+01,8.0000000000E+02,1.2368839473E-02,1.2368839473E-05,9.4204770848E-02,0.0000000000E+00,3.6772390623E-01,0.0000000000E+00,2.7964222047E-02,0.0000000000E+00,-4.3925749148E+00,4.3819332823E-01,-4.3915754145E+00,-4.3935754151E+00
3.8000000000E+01,8.0000000000E+02,1.0151901594E-02,1.0151901594E-05,9.1521594092E-02,0.0000000000E+00,3.4917705899E-01,0.0000000000E+00,2.5490617160E-02,0.0000000000E+00,-4.5900942419E+00,4.1756394932E-01,-4.5890947416E+00,-4.5910947423E+00
4.0000000000E+01,8.0000000000E+02,8.2993427526E-03,8.2993427526E-06,8.6442412982E-02,0.0000000000E+00,3.3147561507E-01,0.0000000000E+00,2.7291769661E-02,0.0000000000E+00,-4.7915789538E+00,4.3266715870E-01,-4.7905794534E+00,-4.7925794541E+00
4.2000000000E+01,8.0000000000E+02,6.8598244159E-03,6.8598244159E-06,8.3798669592E-02,0.0000000000E+00,3.1747085584E-01,0.0000000000E+00,2.7509470662E-02,0.0000000000E+00,-4.9820734329E+00,4.3446264809E-01,-4.9810739326E+00,-4.9830739332E+00
4.4000000000E+01,8.0000000000E+02,5.6438719291E-03,5.6438719291E-06,7.9747074769E-02,0.0000000000E+00,3.0224094859E-01,0.0000000000E+00,2.7711728825E-02,0.0000000000E+00,-5.1771849368E+00,4.3612522328E-01,-5.1761854364E+00,-5.1781854371E+00
4.6000000000E+01,8.0000000000E+02,4.6694148562E-03,4.6694148562E-06,7.6440965956E-02,0.0000000000E+00,2.8964792555E-01,0.0000000000E+00,2.7081603094E-02,0.0000000000E+00,-5.3667215136E+00,4.3092786278E-01,-5.3657220133E+00,-5.3677220139E+00
4.8000000000E+01,8.0000000000E+02,3.8366938345E-03,3.8366938345E-06,7.3382769389E-02,0.0000000000E+00,2.7714233813E-01,0.0000000000E+00,2.4598319051E-02,0.0000000000E+00,-5.5631442638E+00,4.0990778848E-01,-5.5621447635E+00,-5.5641447642E+00
5.0000000000E+01,8.0000000000E+02,3.1790466073E-03,3.1790466073E-06,6.6000000000E-02,0.0000000000E+00,2.6900000000E-01,0.0000000000E+00,2.5000000000E-02,0.0000000000E+00,-5.7511739362E+00,4.1336926624E-01,-5.7501744358E+00,-5.7521744365E+00
5.2000000000E+01,8.0000000000E+02,2.5992791602E-03,2.5992791602E-06,6.4000000000E-02,0.0000000000E+00,2.6200000000E-01,0.0000000000E+00,2.5000000000E-02,0.0000000000E+00,-5.9525211185E+00,4.1336926624E-01,-5.9515216181E+00,-5.9535216188E+00
5.4100000000E+01,8.0000000000E+02,2.1322603251E-03,2.1322603251E-06,6.1000000000E-02,0.0000000000E+00,2.5100000000E-01,0.0000000000E+00,2.5000000000E-02,0.0000000000E+00,-6.1505726764E+00,4.1336926624E-01,-6.1495731761E+00,-6.1515731767E+00
5.6200000000E+01,8.0000000000E+02,1.7646109368E-03,1.7646109368E-06,5.9000000000E-02,0.0000000000E+00,2.4400000000E-01,0.0000000000E+00,2.5000000000E-02,0.0000000000E+00,-6.3398250453E+00,4.1336926624E-01,-6.3388255450E+00,-6.3408255457E+00
5.8200000000E+01,8.0000000000E+02,1.4361970256E-03,1.4361970256E-06,5.7000000000E-02,0.0000000000E+00,2.3700000000E-01,0.0000000000E+00,2.5000000000E-02,0.0000000000E+00,-6.5457566133E+00,4.1336926624E-01,-6.5447571130E+00,-6.5467571137E+00
6.0200000000E+01,8.0000000000E+02,1.2037695958E-03,1.2037695958E-06,5.3000000000E-02,0.0000000000E+00,2.2724891499E-01,0.0000000000E+00,2.5000000000E-02,0.0000000000E+00,-6.7222973161E+00,4.1336926624E-01,-6.7212978157E+00,-6.7232978164E+00
6.2200000000E+01,8.0000000000E+02,9.7351471135E-04,9.7351471135E-07,5.2000000000E-02,0.0000000000E+00,2.1967673989E-01,0.0000000000E+00,2.5000000000E-02,0.0000000000E+00,-6.9345976215E+00,4.1336926624E-01,-6.9335981211E+00,-6.9355981218E+00
6.4200000000E+01,8.0000000000E+02,8.0163814208E-04,8.0163814208E-07,5.1000000000E-02,0.0000000000E+00,2.1320000000E-01,0.0000000000E+00,2.5000000000E-02,0.0000000000E+00,-7.1288532463E+00,4.1336926624E-01,-7.1278537460E+00,-7.1298537467E+00
6.6200000000E+01,8.0000000000E+02,6.5585986636E-04,6.5585986636E-07,4.8000000000E-02,0.0000000000E+00,2.0577505992E-01,0.0000000000E+00,2.5000000000E-02,0.0000000000E+00,-7.3295634102E+00,4.1336926624E-01,-7.3285639099E+00,-7.3305639105E+00
6.8200000000E+01,8.0000000000E+02,5.4394968773E-04,5.4394968773E-07,4.8000000000E-02,0.0000000000E+00,2.0165643712E-01,0.0000000000E+00,2.5000000000E-02,0.0000000000E+00,-7.5166538012E+00,4.1336926624E-01,-7.5156543008E+00,-7.5176543015E+00
7.0300000000E+01,8.0000000000E+02,4.4805094536E-04,4.4805094536E-07,4.6000000000E-02,0.0000000000E+00,1.9529200331E-01,0.0000000000E+00,2.5000000000E-02,0.0000000000E+00,-7.7106036147E+00,4.1336926624E-01,-7.7096041143E+00,-7.7116041150E+00
7.2300000000E+01,8.0000000000E+02,3.6971186397E-04,3.6971186397E-07,4.5500000000E-02,0.0000000000E+00,1.9007798507E-01,0.0000000000E+00,2.5000000000E-02,0.0000000000E+00,-7.9027866017E+00,4.1336926624E-01,-7.9017871014E+00,-7.9037871021E+00
7.4300000000E+01,8.0000000000E+02,3.0868511667E-04,3.0868511667E-07,4.5500000000E-02,0.0000000000E+00,1.8550000000E-01,0.0000000000E+00,2.5000000000E-02,0.0000000000E+00,-8.0831888405E+00,4.1336926624E-01,-8.0821893402E+00,-8.0841893409E+00
7.6300000000E+01,8.0000000000E+02,2.5651768255E-04,2.5651768255E-07,4.5000000000E-02,0.0000000000E+00,1.8100000000E-01,0.0000000000E+00,2.5000000000E-02,0.0000000000E+00,-8.2683129579E+00,4.1336926624E-01,-8.2673134576E+00,-8.2693134582E+00
7.8300000000E+01,8.0000000000E+02,2.1371933453E-04,2.1371933453E-07,4.3000000000E-02,0.0000000000E+00,1.7623585837E-01,0.0000000000E+00,2.5000000000E-02,0.0000000000E+00,-8.4508469246E+00,4.1336926624E-01,-8.4498474243E+00,-8.4518474250E+00
8.0300000000E+01,8.0000000000E+02,1.7851786343E-04,1.7851786343E-07,4.2000000000E-02,0.0000000000E+00,1.7100000000E-01,0.0000000000E+00,2.5000000000E-02,0.0000000000E+00,-8.6308218865E+00,4.1336926624E-01,-8.6298223862E+00,-8.6318223869E+00
8.2300000000E+01,8.0000000000E+02,1.5073282458E-04,1.5073282458E-07,4.2000000000E-02,0.0000000000E+00,1.6800000000E-01,0.0000000000E+00,2.5000000000E-02,0.0000000000E+00,-8.8000016620E+00,4.1336926624E-01,-8.7990021617E+00,-8.8010021623E+00
8.4300000000E+01,8.0000000000E+02,1.2610444605E-04,1.2610444605E-07,4.1000000000E-02,0.0000000000E+00,1.6400000000E-01,0.0000000000E+00,2.5000000000E-02,0.0000000000E+00,-8.9784000575E+00,4.1336926624E-01,-8.9774005572E+00,-8.9794005578E+00
8.6300000000E+01,8.0000000000E+02,1.0624495534E-04,1.0624495534E-07,4.0000000000E-02,0.0000000000E+00,1.6000000000E-01,0.0000000000E+00,2.5000000000E-02,0.0000000000E+00,-9.1497632305E+00,4.1336926624E-01,-9.1487637302E+00,-9.1507637308E+00
8.8300000000E+01,8.0000000000E+02,8.8963076071E-05,8.8963076071E-08,4.0000000000E-02,0.0000000000E+00,1.5700000000E-01,0.0000000000E+00,2.5000000000E-02,0.0000000000E+00,-9.3272891499E+00,4.1336926624E-01,-9.3262896496E+00,-9.3282896503E+00
9.0300000000E+01,8.0000000000E+02,7.6904274930E-05,7.6904274930E-08,3.9000000000E-02,0.0000000000E+00,1.5300000000E-01,0.0000000000E+00,2.5000000000E-02,0.0000000000E+00,-9.4729490922E+00,4.1336926624E-01,-9.4719495919E+00,-9.4739495926E+00
9.2400000000E+01,8.0000000000E+02,6.4835420913E-05,6.4835420913E-08,3.8000000000E-02,0.0000000000E+00,1.5000000000E-01,0.0000000000E+00,2.5000000000E-02,0.0000000000E+00,-9.6436584849E+00,4.1336926624E-01,-9.6426589846E+00,-9.6446589853E+00
9.4400000000E+01,8.0000000000E+02,5.4843892559E-05,5.4843892559E-08,3.8000000000E-02,0.0000000000E+00,1.4700000000E-01,0.0000000000E+00,2.5000000000E-02,0.0000000000E+00,-9.8110197255E+00,4.1336926624E-01,-9.8100202252E+00,-9.8120202258E+00
9.6400000000E+01,8.0000000000E+02,4.6450129563E-05,4.6450129563E-08,3.8000000000E-02,0.0000000000E+00,1.4400000000E-01,0.0000000000E+00,2.5000000000E-02,0.0000000000E+00,-9.9771313034E+00,4.1336926624E-01,-9.9761318031E+00,-9.9781318037E+00
9.8400000000E+01,8.0000000000E+02,3.9064600280E-05,3.9064600280E-08,3.7000000000E-02,0.0000000000E+00,1.4200000000E-01,0.0000000000E+00,2.5000000000E-02,0.0000000000E+00,-1.0150293865E+01,4.1336926624E-01,-1.0149294364E+01,-1.0151294365E+01
1.0000000000E+02,8.0000000000E+02,3.2924379188E-05,3.2924379188E-08,3.7000000000E-02,0.0000000000E+00,1.3920000000E-01,0.0000000000E+00,2.5000000000E-02,0.0000000000E+00,-1.0321297166E+01,4.1336926624E-01,-1.0320297666E+01,-1.0322297666E+01
1.0200000000E+02,8.0000000000E+02,2.7170674524E-05,2.7170674524E-08,3.6000000000E-02,0.0000000000E+00,1.3650000000E-01,0.0000000000E+00,2.5000000000E-02,0.0000000000E+00,-1.0513372309E+01,4.1336926624E-01,-1.0512372808E+01,-1.0514372809E+01
1.0400000000E+02,8.0000000000E+02,2.3315104629E-05,2.3315104629E-08,3.6000000000E-02,0.0000000000E+00,1.3500000000E-01,0.0000000000E+00,2.5000000000E-02,0.0000000000E+00,-1.0666409140E+01,4.1336926624E-01,-1.0665409640E+01,-1.0667409640E+01
1.0600000000E+02,8.0000000000E+02,1.9365959502E-05,1.9365959502E-08,3.5500000000E-02,0.0000000000E+00,1.3200000000E-01,0.0000000000E+00,2.5000000000E-02,0.0000000000E+00,-1.0851993698E+01,4.1336926624E-01,-1.0850994198E+01,-1.0852994198E+01
1.0800000000E+02,8.0000000000E+02,1.6262607075E-05,1.6262607075E-08,3.4500000000E-02,0.0000000000E+00,1.2900000000E-01,0.0000000000E+00,2.5000000000E-02,0.0000000000E+00,-1.1026642130E+01,4.1336926624E-01,-1.1025642630E+01,-1.1027642630E+01
1.1000000000E+02,8.0000000000E+02,1.3693956692E-05,1.3693956692E-08,3.4300000000E-02,0.0000000000E+00,1.2740000000E-01,0.0000000000E+00,2.5000000000E-02,0.0000000000E+00,-1.1198555940E+01,4.1336926624E-01,-1.1197556440E+01,-1.1199556440E+01
1.1200000000E+02,8.0000000000E+02,1.1463401252E-05,1.1463401252E-08,3.4200000000E-02,0.0000000000E+00,1.2480000000E-01,0.0000000000E+00,2.5000000000E-02,0.0000000000E+00,-1.1376351097E+01,4.1336926624E-01,-1.1375351597E+01,-1.1377351598E+01
1.1400000000E+02,8.0000000000E+02,9.5755088764E-06,9.5755088764E-09,3.4300000000E-02,0.0000000000E+00,1.2230000000E-01,0.0000000000E+00,2.5000000000E-02,0.0000000000E+00,-1.1556301878E+01,4.1336926624E-01,-1.1555302378E+01,-1.1557302378E+01
1.1600000000E+02,8.0000000000E+02,8.0587261514E-06,8.0587261514E-09,3.4300000000E-02,0.0000000000E+00,1.2050000000E-01,0.0000000000E+00,2.5000000000E-02,0.0000000000E+00,-1.1728755060E+01,4.1336926624E-01,-1.1727755559E+01,-1.1729755560E+01
1.1800000000E+02,8.0000000000E+02,6.9017987845E-06,6.9017987845E-09,3.4300000000E-02,0.0000000000E+00,1.1850000000E-01,0.0000000000E+00,2.5000000000E-02,0.0000000000E+00,-1.1883728487E+01,4.1336926624E-01,-1.1882728987E+01,-1.1884728987E+01
1.2000000000E+02,8.0000000000E+02,5.6272841427E-06,5.6272841427E-09,3.4300000000E-02,0.0000000000E+00,1.1670000000E-01,0.0000000000E+00,2.5000000000E-02,0.0000000000E+00,-1.2087883622E+01,4.1336926624E-01,-1.2086884122E+01,-1.2088884123E+01