 T (K)  tau (s)  tau_ln_err-up (s)  tau_ln_err-lw (s)  tau_err (s)  chi_S (cm^3mol^-1)  chi_S_err (cm^3mol^-1)  chi_T (cm^3mol^-1)  chi_T_err (cm^3mol^-1)  alpha  alpha_err 
 8.810858    5.49287604E-01    4.22564308E+00    7.14014093E-02    7.30058490E-02    1.89031651E-02    5.93557494E-04    1.27524930E-01    4.80558705E-03    4.21127287E-01    2.03379426E-02
 9.784138    2.65413429E-01    1.47237566E+00    4.78439641E-02    1.89235051E-02    1.86074529E-02    4.62994063E-04    1.06692309E-01    2.23108462E-03    3.61406212E-01    1.66346302E-02
 10.755633    1.65000858E-01    7.78464395E-01    3.49730615E-02    8.48628184E-03    1.81195770E-02    3.94560871E-04    9.42902001E-02    1.39633057E-03    3.28058913E-01    1.47488273E-02
 11.998071    9.78931973E-02    3.70349550E-01    2.58757654E-02    3.51649775E-03    1.73647033E-02    3.17150534E-04    8.21829989E-02    8.20019807E-04    2.78348131E-01    1.26612606E-02
 12.998539    9.83932004E-02    4.80613233E-01    2.01434776E-02    9.22351470E-03    1.58540128E-02    2.86992992E-04    8.24771765E-02    2.56861592E-03    3.35427338E-01    1.68363335E-02
 13.997622    6.80115326E-02    3.04307823E-01    1.52002946E-02    4.92256865E-03    1.51754750E-02    2.77918883E-04    7.46121563E-02    1.80577278E-03    3.16573527E-01    1.59334178E-02
 14.998485    4.75542383E-02    1.84883609E-01    1.22315093E-02    2.67253250E-03    1.45873621E-02    2.70016197E-04    6.75310346E-02    1.29721866E-03    2.84755978E-01    1.54725718E-02
 15.998855    3.61095493E-02    1.30339375E-01    1.00038807E-02    1.74355235E-03    1.38854239E-02    2.64699316E-04    6.20866807E-02    1.02397021E-03    2.67143242E-01    1.52195064E-02
 16.999657    2.83473882E-02    9.89434419E-02    8.12155308E-03    1.14470340E-03    1.34244874E-02    2.44246493E-04    5.85119592E-02    7.93509372E-04    2.59008171E-01    1.38717448E-02
 17.998930    2.35902738E-02    7.80550082E-02    7.12960042E-03    1.16594595E-03    1.29430464E-02    3.32858061E-04    5.53471441E-02    9.15569933E-04    2.45845018E-01    1.85430311E-02
 18.999410    1.90165426E-02    6.02469865E-02    6.00243950E-03    8.36164595E-04    1.24361051E-02    3.04966655E-04    5.23137289E-02    7.54190884E-04    2.34959373E-01    1.74532059E-02
 19.999326    1.54785899E-02    4.55812794E-02    5.25625317E-03    3.16885455E-04    1.20809547E-02    1.50072573E-04    4.91760498E-02    3.24694428E-04    2.16293432E-01    8.76084065E-03
 20.999265    1.28416260E-02    4.13410651E-02    3.98894801E-03    5.68934276E-04    1.13864220E-02    3.28681451E-04    4.72639110E-02    6.45463952E-04    2.38993171E-01    1.85728300E-02
 21.998718    1.10453008E-02    3.19032420E-02    3.82402110E-03    2.38203856E-04    1.11848016E-02    1.64616717E-04    4.45125999E-02    2.93628042E-04    2.11290067E-01    9.74231407E-03
 22.999351    9.64417473E-03    2.59349325E-02    3.58628681E-03    2.27834959E-04    1.10002968E-02    1.85019826E-04    4.26601527E-02    3.04599459E-04    1.92593663E-01    1.12072486E-02
 23.998659    8.06850200E-03    2.13393551E-02    3.05073533E-03    1.80273222E-04    1.05467856E-02    1.78663360E-04    4.07304531E-02    2.67369535E-04    1.88197336E-01    1.08436402E-02
 24.999663    7.28905251E-03    1.92807633E-02    2.75561116E-03    1.33213857E-04    1.03103818E-02    1.44942011E-04    3.92402873E-02    2.05715042E-04    1.88236765E-01    8.93330240E-03
